Data Wrangling
…
line 8. sort by civilian deaths in decreasing order

line 9. ungroup the result

url<-'https://ucdp.uu.se/downloads/candidateged/GEDEvent_v25_0_7.csv'
ged<-read_csv(url)
ged|>
  filter(deaths_civilians>0)|>
  group_by(conflict_name)|>
  filter(deaths_civilians == max(deaths_civilians))|>
  select(date_start, conflict_name, deaths_civilians)|>
  arrange(-deaths_civilians)|>
  ungroup()

# A tibble: 143 × 3
   date_start          conflict_name                       deaths_civilians
   <dttm>              <chr>                                          <dbl>
 1 2025-07-12 00:00:00 RSF - Civilians                                  402
 2 2025-07-13 00:00:00 Syria: Government                                321
 3 2025-07-09 00:00:00 AFC - Civilians                                  169
 4 2025-07-13 00:00:00 Government of Syria - Civilians                   89
 5 2025-07-28 00:00:00 IS - Civilians                                    45
 6 2025-07-21 00:00:00 Forces of Dan Saadiya   - Civilians               35
 7 2025-07-31 00:00:00 Russia - Ukraine                                  31
 8 2025-07-10 00:00:00 Myanmar (Burma): Government                       30
 9 2025-07-13 00:00:00 Sudan: Government                                 27
10 2025-07-29 00:00:00 Israel: Palestine                                 26
# ℹ 133 more rows
…
url<-'https://ucdp.uu.se/downloads/candidateged/GEDEvent_v25_0_7.csv'
ged<-read_csv(url)
ged_by_type=ged|>
  mutate(
    type_of_violence = factor(
    type_of_violence,
    levels = c(1, 2, 3),
    labels = c("State-based", "Non-state", "One-sided")
  ))|>
  group_by(country, type_of_violence)|>
  summarise(est_deaths  = sum(best))

ged_by_type

# A tibble: 99 × 3
# Groups:   country [50]
   country     type_of_violence est_deaths
   <chr>       <fct>                 <dbl>
 1 Afghanistan State-based               4
 2 Afghanistan Non-state                 1
 3 Afghanistan One-sided                 5
 4 Angola      State-based              22
 5 Bangladesh  State-based               2
 6 Bangladesh  Non-state                 5
 7 Bangladesh  One-sided                 3
 8 Belize      One-sided                 2
 9 Benin       State-based               0
10 Brazil      State-based               1
# ℹ 89 more rows
Back to the problem

Try pivoting this to wide format and then back again.

Pivoting the data from long to wide with one column for each conflict type.

Show the code

ged_wide<-ged_by_type|>
  pivot_wider(names_from = type_of_violence, 
              values_from = est_deaths)
  
ged_wide

# A tibble: 50 × 4
# Groups:   country [50]
   country              `State-based` `Non-state` `One-sided`
   <chr>                        <dbl>       <dbl>       <dbl>
 1 Afghanistan                      4           1           5
 2 Angola                          22          NA          NA
 3 Bangladesh                       2           5           3
 4 Belize                          NA          NA           2
 5 Benin                            0          NA          NA
 6 Brazil                           1          35           2
 7 Burkina Faso                   296           6          58
 8 Burundi                         NA          NA          15
 9 Cambodia (Kampuchea)            11          NA          NA
10 Cameroon                        12           1          10
# ℹ 40 more rows

Putting the wide data back in its original format:

Show the code

ged_long <- ged_wide|>
  pivot_longer(cols = c(`State-based`, `Non-state`, `One-sided`),
               names_to ='violence_type', #  name the new columns
               values_to ='est_deaths'
               )

ged_long

# A tibble: 150 × 3
# Groups:   country [50]
   country     violence_type est_deaths
   <chr>       <chr>              <dbl>
 1 Afghanistan State-based            4
 2 Afghanistan Non-state              1
 3 Afghanistan One-sided              5
 4 Angola      State-based           22
 5 Angola      Non-state             NA
 6 Angola      One-sided             NA
 7 Bangladesh  State-based            2
 8 Bangladesh  Non-state              5
 9 Bangladesh  One-sided              3
10 Belize      State-based           NA
# ℹ 140 more rows
…
